smart-heating/waveform.vcd
$date
  Tue Jan 23 08:32:25 2024
$end
$version
  GHDL v0
$end
$timescale
  1 fs
$end
$scope module standard $end
$upscope $end
$scope module std_logic_1164 $end
$upscope $end
$scope module numeric_std $end
$upscope $end
$scope module typepackage $end
$upscope $end
$scope module smartheatertest $end
$var reg 1 ! turnon $end
$comment operationmode is not handled $end
$var reg 8 " desiredtemperature[7:0] $end
$var reg 1 # enablevalve $end
$var reg 1 $ motionsensorinput $end
$var reg 8 % temperatureinput[7:0] $end
$var reg 1 & clock $end
$var reg 1 ' reset $end
$var reg 1 ( controlvalveoutput $end
$var reg 1 ) powerled $end
$var reg 1 * redled $end
$var reg 1 + greenled $end
$var reg 1 , blueled $end
$scope module uut $end
$var reg 1 - turnon $end
$comment operationmode is not handled $end
$var reg 8 . desiredtemperature[7:0] $end
$var reg 1 / enablevalve $end
$var reg 1 0 motionsensorinput $end
$var reg 8 1 temperatureinput[7:0] $end
$var reg 1 2 clock $end
$var reg 1 3 reset $end
$var reg 1 4 controlvalveoutput $end
$var reg 1 5 powerled $end
$var reg 1 6 redled $end
$var reg 1 7 greenled $end
$var reg 1 8 blueled $end
$var reg 1 9 turnonsignal $end
$comment operationmodesignal is not handled $end
$comment temperatureoutput is not handled $end
$var reg 1 : motionsensoroutput $end
$var reg 1 ; controlvalveoutputsignal $end
$scope module temperaturesensor1 $end
$var reg 8 < temp_input[7:0] $end
$comment temp_output is not handled $end
$upscope $end
$scope module motionsensor1 $end
$var reg 1 = sensor_input $end
$var reg 1 > motion_detected $end
$upscope $end
$scope module controlvalve1 $end
$var reg 1 ? control_signal $end
$var reg 1 @ valve_state $end
$upscope $end
$upscope $end
$upscope $end
$enddefinitions $end
#0
0!
b00000000 "
0#
0$
b00000000 %
0&
1'
0(
0)
0*
0+
0,
0-
b00000000 .
0/
00
b00000000 1
02
13
04
05
06
07
08
09
0:
0;
b00000000 <
0=
0>
0?
0@
#10000000
1&
0'
12
03
#20000000
1!
0&
1-
02
#30000000
1&
12
19
#40000000
0&
02
#50000000
1&
12
#60000000
1#
0&
1/
02
#70000000
1&
1(
1)
1*
12
14
15
16
1;
1?
1@
#80000000
0&
02
#90000000
1&
12
#100000000
0&
02
#110000000
1&
12
#120000000
0#
0&
0/
02
#130000000
1&
0(
0)
0*
12
04
05
06
0;
0?
0@
#140000000
0&
02
#150000000
1&
12
#160000000
1$
0&
10
02
1:
1=
1>
#170000000
1&
1(
1)
1,
12
14
15
18
1;
1?
1@
#180000000
0&
02
#190000000
1&
12
#200000000
0&
02
#210000000
1&
12
#220000000
0$
0&
00
02
0:
0=
0>
#230000000
1&
0(
0)
0,
12
04
05
08
0;
0?
0@
#240000000
0&
02
#250000000
1&
12
#260000000
0&
02
#270000000
1&
12
#280000000
b00011001 "
0&
b00011001 .
02
#290000000
1&
12
#300000000
0&
02
#310000000
1&
12
#320000000
0&
02
#330000000
1&
1(
1)
1+
12
14
15
17
1;
1?
1@
#340000000
0&
02
#350000000
1&
12
#360000000
b00010100 %
0&
b00010100 1
02
b00010100 <
#370000000
1&
12
#380000000
0&
02
#390000000
1&
12
#400000000
0&
02
#410000000
1&
12
#420000000
b00001111 "
0&
b00001111 .
02
#430000000
1&
0(
0)
0+
12
04
05
07
0;
0?
0@
#440000000
0&
02
#450000000
1&
12
#460000000
0&
02
#470000000
1&
12
#480000000
0!
0&
0-
02
#490000000
1&
12
09
#500000000
0&
02
#510000000
1&
12
#520000000
0&
02
#530000000
1&
12
#540000000
0&
02
#550000000
1&
12
#560000000
0&
02
#570000000
1&
12
#580000000
0&
02
#590000000
1&
12
#600000000
0&
02
#610000000
1&
12
#620000000
0&
02
#630000000
1&
12
#640000000
0&
02
#650000000
1&
12
#660000000
1!
0&
1-
02
#670000000
1&
12
19
#680000000
0&
02
#690000000
1&
12
#700000000
0&
02
#710000000
1&
12
#720000000
1#
0&
1/
02
#730000000
1&
1(
1)
1*
12
14
15
16
1;
1?
1@
#740000000
0&
02
#750000000
1&
12
#760000000
0&
02
#770000000
1&
12
#780000000
0&
02
#790000000
1&
0*
1,
12
06
18
#800000000
0&
02
#810000000
1&
0(
0)
0,
12
04
05
08
0;
0?
0@
#820000000
0&
02
#830000000
1&
12
#840000000
1$
0&
10
02
1:
1=
1>
#850000000
1&
1(
1)
1,
12
14
15
18
1;
1?
1@
#860000000
0&
02
#870000000
1&
12
#880000000
0&
02
#890000000
1&
12
#900000000
0!
0&
0-
02
#910000000
1&
12
09
#920000000
0&
02
#930000000
1&
0(
0)
0,
12
04
05
08
0;
0?
0@
